# 营业执照信息
统一社会信用代码： 914403007755538580 企业名称： 力野精密工业(深圳)有限公司 注册号： 440307503223952 法定代表人： 石明津 类型： 有限责任公司(外国法人独资) 成立日期： 2005年11月15日 注册资本： 150.000000万美元 核准日期： 2017年12月11日 营业期限自： 2005年11月15日 营业期限至： 2025年11月15日 登记机关： 龙岗局 登记状态： 存续（在营、开业、在册） 住所： 深圳市龙岗区坪地街道坪西社区龙岗北路39号 经营范围： 一般经营项目是：研究开发高档建筑五金、水暖器材、金属五金零件、休闲运动用品、渔具、民用飞机与汽车、摩托车、自行车用铸锻毛胚及关键零部件；从事货物、技术进出口业务（不含分销、国家专营专控商品）。，许可经营项目是：生产经营五金机械制品；有色金属压延加工。（不涉及外商投资准入特别管理措施，涉及国营贸易、配额、许可证及专项管理规定的商品，按国家有关规定办理申请后经营）

# 股东及出资信息上
{"cacheKey":"0_5","currentPage":0,"data":[{"bLicNo":"","blicType_CN":"","cerNo":"","cerType_CN":"","conDate":null,"country_CN":"文莱","detailCheck":"false","dom":"","inv":"GREAT WALL INTERNATIONAL LTD.","invId":"PROVINCENODENUM440000d4d8009f314b42b89b5119f31d8e7df1","invType_CN":"法<span class=\"dp\">5rOV5Lq66IKh5Lic</span>人股<span class=\"dp\">5rOV5Lq66IKh5Lic</span>东","liAcConAm":null,"liSubConAm":null,"respForm_CN":"","sConForm":"","sConForm_CN":""}],"draw":1,"error":"","perPage":5,"recordsFiltered":1,"recordsTotal":1,"start":0,"totalPage":1}

# 主要人员信息
{"cacheKey":"0_16","currentPage":0,"data":[{"name":"<div class=\"dp\">55+z6ZqG5bqG</div>石<div class=\"dp\">55+z6ZqG5bqG</div>隆庆","perId":"9640251442a5441c85dddd3ac7af2edc","position_CN":"<img src=\"data:image/png;base64,iVBORw0KGgoAAAANSUhEUgAAAB0AAAAOCAYAAADT0Rc6AAABdklEQVR42qWUMUgDQRBFDwsrsbGw\nEBEsLIJIOpEgIkgQK7tUV4iQIoiFnYi9hcgVQZBUYmEnInIIIQQLEUFSiIgIIiGlnVVKZ+EffL4T\nTnHhkezfnZ3d2b8XRX7bMIrUL0L7bVsy4rxJNaNBvBlN6jeh8ZwaNtJwuDVeBoxVs6RzxgqRGvvU\n3zUu8H/VKCMmsOaQGNcDxriC0R6S3RgfoGd8Gm0sErh0Sn1F44EnxLOWankLctKMAyzojRUo/kvW\n2zTqovU1aYxJSrjL5wFjsSTNO2nfM9OIcS7cw0Cqz1LcAjawTtRRTtbCnHFNOma0jGEi3N2xaCnK\ny87XKrScCr3DSD+S9sTebcf6XUq6jPtTTpGYtQ5cXf5v0lDaisMJXgFrDzDmot7pDn4zqliAtW1j\nhuISnIy5M15F63rlnccHgHnEXaheoriS85yOnKemXogmxGkZiePCjEnZ9CgcWsFJt/K+vVMI+AvT\nssaQcYYndYircNs3bFSWiVYudnIAAAAASUVORK5CYII=\"/>","pripId":"A264297"},{"name":"石<div class=\"dp\">55+z5piO5rSl</div><div class=\"dp\">55+z5piO5rSl</div>明津","perId":"a547137755974f859918255a79a2cbc5","position_CN":"<img src=\"data:image/png;base64,iVBORw0KGgoAAAANSUhEUgAAACsAAAAOCAYAAAC2POVFAAAB/0lEQVR42rWVQUSDYRjHJ5MOiUw6\nTCJJJtltMpmYyQ7pNh12SOwwSbol6dClQ7LDRHaaDpEkySdmpkMS0yFJIpkOHbqlw+xSz5v/x9Pj\n+fZ+O/Tys33P+z7f+7zP+3+eLxDQxyIRZc9R2PyOBJH1sS5CFC1rgtKQJ0qMZ6LCniuw8TV5HKCk\ncEU8eszl2L5J4sMjyH6iTBzLiUk4ujjEJnteJ07xf5ZIwceQVigQFx5zUR/BLhHvxAkxoJ1kA0Fe\nEq/gDS+rYXPDmSKJczZvuIc/tznKnjzYbtyWucEnHMxTO0mFHQSizUWY/6eSGanFZptg+4gvok4s\n2ISexcslRqsPHnNZEawts01LZoc6KOBAL3EkuMG1SPsE85tC4POMIq6d28yaQfiYwvnukD83FSKq\n0I6L0ea+sDnICO8kMutV5UZeFB3KAssiQdYRQkHxNlNTWlCDBTsDfUrKCJjb7tAlUm2C7cJ+uf8I\n1kggo3CArsJttyjYaUvrikHfSZtm1/DrksPG3LZCjDG/AjLJuUb74baGDxmME2EcrgWJqSOGxs+p\nQ2vSHmd+caWt7Sktz1Gy5QabwHyLfTTSmDPymeNOYVG5LgWlql1kq+lDgWSQ2WUfdbKKSjdBbSlf\nqxCKswUJ/Y5hbNQJI+LFpjgO0dp2IRnbGCW2iR7LOtPygj81EMiFCWOxNQAAAABJRU5ErkJggg==\"/>","pripId":"A264297"},{"name":"<span class=\"dp\">55+z5piO5p2w</span>石<span class=\"dp\">55+z5piO5p2w</span>明杰","perId":"6c6452f338714d72b61196c2bd68348b","position_CN":"<img src=\"data:image/png;base64,iVBORw0KGgoAAAANSUhEUgAAAB0AAAAOCAYAAADT0Rc6AAABdklEQVR42qWUMUgDQRBFDwsrsbGw\nEBEsLIJIOpEgIkgQK7tUV4iQIoiFnYi9hcgVQZBUYmEnInIIIQQLEUFSiIgIIiGlnVVKZ+EffL4T\nTnHhkezfnZ3d2b8XRX7bMIrUL0L7bVsy4rxJNaNBvBlN6jeh8ZwaNtJwuDVeBoxVs6RzxgqRGvvU\n3zUu8H/VKCMmsOaQGNcDxriC0R6S3RgfoGd8Gm0sErh0Sn1F44EnxLOWankLctKMAyzojRUo/kvW\n2zTqovU1aYxJSrjL5wFjsSTNO2nfM9OIcS7cw0Cqz1LcAjawTtRRTtbCnHFNOma0jGEi3N2xaCnK\ny87XKrScCr3DSD+S9sTebcf6XUq6jPtTTpGYtQ5cXf5v0lDaisMJXgFrDzDmot7pDn4zqliAtW1j\nhuISnIy5M15F63rlnccHgHnEXaheoriS85yOnKemXogmxGkZiePCjEnZ9CgcWsFJt/K+vVMI+AvT\nssaQcYYndYircNs3bFSWiVYudnIAAAAASUVORK5CYII=\"/>","pripId":"A264297"}],"draw":1,"error":"","perPage":16,"recordsFiltered":3,"recordsTotal":3,"start":0,"totalPage":1}

# 变更信息
{"cacheKey":"0_5","currentPage":0,"data":[{"altAf":"","altBe":"","altDate":1512921600000,"altItem_CN":"章<span class=\"dp\">56ug56iL5aSH5qGI</span>程备<span class=\"dp\">56ug56iL5aSH5qGI</span>案"},{"altAf":"生产经营五金机械制品；有色金属压延加工。（不涉及外商投资准入特别管理措施，涉及国营贸易、配额、许可证及专项管理规定的商品，按国家有关规定办理申请后经营）","altBe":"","altDate":1509552000000,"altItem_CN":""},{"altAf":"研究开发高档建筑五金、水暖器材、金属五金零件、休闲运动用品、渔具、民用飞机与汽车、摩托车、自行车用铸锻毛胚及关键零部件；从事货物、技术进出口业务（不含分销、国家专营专控商品）。","altBe":"研究开发高档建筑五金、水暖器材、金属五金零件、休闲运动用品、渔具、民用飞机与汽车、摩托车、自行车用铸锻毛胚及关键零部件；生产经营五金机械制品；从事货物、技术进出口业务（不含分销、国家专营专控商品）。","altDate":1509552000000,"altItem_CN":""},{"altAf":"审批文件名称：《建设项目环境影响审查批复》、审批文件号：；","altBe":"审批文件名称：环保批文、审批文件号：；","altDate":1509552000000,"altItem_CN":"许可<span class=\"dp\">6K645Y+v57uP6JCl6aG555uu5Y+Y5pu0</span><span class=\"dp\">6K645Y+v57uP6JCl6aG555uu5Y+Y5pu0</span>经<span class=\"dp\">6K645Y+v57uP6JCl6aG555uu5Y+Y5pu0</span>营<span class=\"dp\">6K645Y+v57uP6JCl6aG555uu5Y+Y5pu0</span>项<span class=\"dp\">6K645Y+v57uP6JCl6aG555uu5Y+Y5pu0</span>目<span class=\"dp\">6K645Y+v57uP6JCl6aG555uu5Y+Y5pu0</span>变更"},{"altAf":"914403007755538580","altBe":"","altDate":1459255440000,"altItem_CN":"<span class=\"dp\">5YW25LuW5LqL6aG55aSH5qGI</span>其他事<span class=\"dp\">5YW25LuW5LqL6aG55aSH5qGI</span>项备案"}],"draw":1,"error":"","perPage":5,"recordsFiltered":6,"recordsTotal":6,"start":0,"totalPage":2}

# 动产抵押登记信息
{"cacheKey":"0_5","currentPage":0,"data":[{"canDate":null,"morCanRea_CN":"","morRegCNo":"44032020023641","morReg_Id":"PROVINCENODENUM440000ae25256971e64cf995dfeaaf1d5faf1e","priClaSecAm":466,"publicDate":null,"regCapCur_Cn":"人民币","regOrg_CN":"广东省深圳市市场监督管理局龙岗监管局","regiDate":1607680409000,"type":"1","type_CN":""},{"canDate":null,"morCanRea_CN":"","morRegCNo":"44032019006978","morReg_Id":"PROVINCENODENUM4400002117921a3f634f2e8c0046345c537688","priClaSecAm":662.5599,"publicDate":null,"regCapCur_Cn":"人民币","regOrg_CN":"广东省深圳市市场监督管理局龙岗监管局","regiDate":1566806427000,"type":"1","type_CN":""},{"canDate":1512026324000,"morCanRea_CN":"","morRegCNo":"0755深圳20170890","morReg_Id":"PROVINCENODENUM44000011A7ACE54D014A7596CAB0A209FC7188","priClaSecAm":4000000,"publicDate":1512026324000,"regCapCur_Cn":"","regOrg_CN":"深圳市市场监督管理局","regiDate":1512026324000,"type":"1","type_CN":""},{"canDate":1468984467000,"morCanRea_CN":"","morRegCNo":"0755深圳20160486","morReg_Id":"PROVINCENODENUM440000BCB0A150D6F2416287A0786D31339E19","priClaSecAm":6854200,"publicDate":1468984467000,"regCapCur_Cn":"","regOrg_CN":"深圳市市场监督管理局","regiDate":1468984467000,"type":"1","type_CN":""},{"canDate":1463554421000,"morCanRea_CN":"主债权消灭、","morRegCNo":"0755深圳20110272","morReg_Id":"PROVINCENODENUM440000465F0143FDE44013848880CD5F9BF4DF","priClaSecAm":4000000,"publicDate":1463554421000,"regCapCur_Cn":"","regOrg_CN":"深圳市市场监督管理局","regiDate":1463554421000,"type":"2","type_CN":""}],"draw":1,"error":"","perPage":5,"recordsFiltered":7,"recordsTotal":7,"start":0,"totalPage":2}

# 抽查检查结果信息
{"cacheKey":"0_5","currentPage":0,"data":[{"insAuth_CN":"深圳市市场监督管理局","insDate":1595898373000,"insRes_CN":"未发现问题","insType":"2","insType_CN":""}],"draw":1,"error":"","perPage":5,"recordsFiltered":1,"recordsTotal":1,"start":0,"totalPage":1}

# 双随机抽查结果信息
{"cacheKey":"0_10","currentPage":0,"data":[{"checkresId":"","entName":"","insAuth":"深圳市市场监督管理局龙岗局","insDate":1635244771000,"insenterId":"","markNum":1,"nodeNum":"440000","pripId":"A264297","pubDate":null,"raninsCheckRes":"","raninsCheckResName":"","raninsItem":"","raninsItemName":"","raninsPlanId":"44030020211005","raninsPlaneName":"2021年网络监测商事主体公示信息抽查龙岗局","raninsTaskId":"44030020211005","raninsTaskName":"2021年网络监测商事主体公示信息抽查龙岗局","raninsType":"","raninsTypeName":"定向","reMark":"","regNo":"","uniscId":"","url":"/%7BEE9C3BC486BD9A16758AFCC7A461185AA5489BF8C32EEB18BF841F7C05629DE26CA94481522D4E9DFA99E06E83CB6881F8D0983A78876A288C26F0344B8BE440C5F6B134F493D451DA962A9681968196705D3884A9B5F567A205AFCC49C5ED3B873B2C3B2C3BA956D81DF035E620AE7DC763C91FA31F080E190E23341932190E191E-1652410282734%7D"},{"checkresId":"","entName":"","insAuth":"深圳市市场监督管理局龙岗局","insDate":1602583114000,"insenterId":"","markNum":1,"nodeNum":"440000","pripId":"A264297","pubDate":null,"raninsCheckRes":"","raninsCheckResName":"","raninsItem":"","raninsItemName":"","raninsPlanId":"44030020201044","raninsPlaneName":"2020年餐饮双随机重点抽查100%任务","raninsTaskId":"44030020201044","raninsTaskName":"2020年餐饮双随机重点抽查100%任务","raninsType":"","raninsTypeName":"定向","reMark":"","regNo":"","uniscId":"","url":"/%7B5B298E7133082FA3C03F497211D4ADEF10FD2E4D769B5EAD0A31AAC9B0D72857D91CF134E798FB284F2C55DB367EDD344D652D8FCD32DF9D39934581FE3E51F570430481412661E46F239F2334233423C5E88D311C0040D217B01A79FC70588E328E998E998E1CE36DA8458053951BC872D67CAA16AABDBBACBB9681ACBB90873B87-1652410282734%7D"},{"checkresId":"","entName":"","insAuth":"深圳市市场监督管理局龙岗局","insDate":1568105297000,"insenterId":"","markNum":1,"nodeNum":"440000","pripId":"A264297","pubDate":null,"raninsCheckRes":"","raninsCheckResName":"","raninsItem":"","raninsItemName":"","raninsPlanId":"44030020191009","raninsPlaneName":"2019单位食堂经营者检查","raninsTaskId":"44030020191009","raninsTaskName":"2019单位食堂经营者检查","raninsType":"","raninsTypeName":"定向","reMark":"","regNo":"","uniscId":"","url":"/%7BE09235CA88B394187B84F2C9AA6F1654AB4695F6CD20E516B18A11720B6C93EC62A74A8F5C234093F497EE608DC5668FF6DE9634768964268228FE3A4585EA4ECBF8BF3AFA9DDA5FD49824988F988F987E53368AA7BBFB69AC0BA1C247CBE335893522352235A758D613FE3BE82EA073C96DC711AD11060017002D3A110D2631263A-1652410282734%7D"},{"checkresId":"","entName":"","insAuth":"深圳市生态环境局龙岗管理局","insDate":1629820800000,"insenterId":"","markNum":1,"nodeNum":"440000","pripId":"A264297","pubDate":null,"raninsCheckRes":"","raninsCheckResName":"","raninsItem":"","raninsItemName":"","raninsPlanId":"44000020210276","raninsPlaneName":"2021年广东省地市区县双随机抽查任务","raninsTaskId":"440000202101011490","raninsTaskName":"2021年广东省地市区县双随机抽查任务","raninsType":"","raninsTypeName":"定向","reMark":"","regNo":"","uniscId":"","url":"/%7B6416B14E0C37109CFF00764D2EEB92D02FC2117249A46192350E95F68FE81768E623CE0BD8A7C41770136AE40941E20B725A12B0F20DE0A206AC7ABEC1016ECA4F7C3BBE7E195EDB501CA01C0B1C0B1CFAD7B20E233F7FED288F2546C34F67B10DB1A6B1A6B123DC52977ABF6CAA24F74DE94395299582958295B8AF82A9BE9582A9823E2235-1652410282734%7D"}],"draw":1,"error":"","perPage":10,"recordsFiltered":4,"recordsTotal":4,"start":0,"totalPage":1}

# 企业年报信息基本信息
{"cacheKey":"0_5","currentPage":0,"data":[{"addr":"深圳市龙岗区坪地街道坪西社区龙岗北路39号","alterStockInfoUrl":"","alterTotalPageUrl":"","alterUrl":"","anCheDate":1591344834000,"anCheId":"A74EB554F3FE3255E0537903000A111E","anCheYear":"2019","anType":"10","annBaseJsUrl":"","annBaseUrl":"","annPbBaseJsUrl":"","annPbBaseUrl":"","annRepFrom":"","annSfcBaseJsUrl":"","annSfcBaseUrl":"","annSfccSocsecinfoUrl":"","annSocsecinfoUrl":"","annulLicenceUrl":"","assGro":10545,"assGroDis":"2","baseInfoUrl":"","branchProductionUrl":"","busSt":"1","busSt_CN":"开业","colEmplNum":0,"colGraNum":0,"dependentEntName":"","dependentName":"","dependentUniscId":"","dis":null,"disEmplNum":0,"disPerNum":0,"email":"442191666@qq.com","empNum":278,"empNumDis":"2","entName":"力野精密工业(深圳)有限公司","entType":"5150","forGuaranteeinfoUrl":"","forInvestmentUrl":"","holdingSmsg":"","holdingSmsgDis":"2","holdingSmsg_cn":"外商控股","isDis":null,"lastModifiedPerson":"","lastModifiedTime":null,"liaGro":5502,"liaGroDis":"2","maiBusInc":16359,"maiBusIncDis":"2","mainBusiAct":"研究开发高档建筑五金、水暖器材、金属五金零件、休闲运动用品、渔具、民用飞机与汽车、摩托车、自行车用铸锻毛胚及关键零部件；生产经营五金机械制品。","netInc":506,"netIncDis":"2","numParM":null,"parIns":"","parIns_CN":"","postalCode":"518117","pripId":"A264297","proGro":595,"proGroDis":"2","ratGro":176,"ratGroDis":"2","regNo":"440307503223952","resParMSign":"","resParSecSign":"","retEmplNum":0,"retSolNum":0,"sExtSequence":"3e232bad57878f1eaf487a6222adf1d2","sponsorUrl":"","tel":"13699798416","totEqu":5044,"totEquDis":"2","uneEmplNum":0,"uneNum":0,"uniscId":"914403007755538580","vAnnPbAssetUrl":"","vAnnualReportAlters":null,"vAnnualReportSfcBranchUrl":"","vannualSfcAssertUrl":"","vendInc":16467,"vendIncDis":"2","webSiteInfoUrl":"","womemPNum":91,"womemPNumDis":"2"}],"draw":1,"error":"","perPage":5,"recordsFiltered":0,"recordsTotal":0,"start":0,"totalPage":0}
{"cacheKey":"0_5","currentPage":0,"data":[{"addr":"深圳市龙岗区坪地街道坪西社区龙岗北路39号","alterStockInfoUrl":"","alterTotalPageUrl":"","alterUrl":"","anCheDate":1630393894000,"anCheId":"BEB7B79189C7921EE0537B03000A2D62","anCheYear":"2020","anType":"10","annBaseJsUrl":"","annBaseUrl":"","annPbBaseJsUrl":"","annPbBaseUrl":"","annRepFrom":"","annSfcBaseJsUrl":"","annSfcBaseUrl":"","annSfccSocsecinfoUrl":"","annSocsecinfoUrl":"","annulLicenceUrl":"","assGro":13240.93,"assGroDis":"2","baseInfoUrl":"","branchProductionUrl":"","busSt":"1","busSt_CN":"开业","colEmplNum":0,"colGraNum":0,"dependentEntName":"","dependentName":"","dependentUniscId":"","dis":null,"disEmplNum":0,"disPerNum":0,"email":"442191666@qq.com","empNum":256,"empNumDis":"2","entName":"力野精密工业(深圳)有限公司","entType":"5150","forGuaranteeinfoUrl":"","forInvestmentUrl":"","holdingSmsg":"","holdingSmsgDis":"2","holdingSmsg_cn":"外商控股","isDis":null,"lastModifiedPerson":"","lastModifiedTime":null,"liaGro":7080.76,"liaGroDis":"2","maiBusInc":17569.34,"maiBusIncDis":"2","mainBusiAct":"研究开发高档建筑五金、水暖器材、金属五金零件、休闲运动用品、渔具、民用飞机与汽车、摩托车、自行车用铸锻毛胚及关键零部件；生产经营五金机械制品。","netInc":935.29,"netIncDis":"2","numParM":null,"parIns":"","parIns_CN":"","postalCode":"518000","pripId":"A264297","proGro":1091.19,"proGroDis":"2","ratGro":120.25,"ratGroDis":"2","regNo":"440307503223952","resParMSign":"","resParSecSign":"","retEmplNum":0,"retSolNum":0,"sExtSequence":"fecd10a3f9862ffc480a28f907f13f3e","sponsorUrl":"","tel":"13699798416","totEqu":6160.17,"totEquDis":"2","uneEmplNum":0,"uneNum":0,"uniscId":"914403007755538580","vAnnPbAssetUrl":"","vAnnualReportAlters":null,"vAnnualReportSfcBranchUrl":"","vannualSfcAssertUrl":"","vendInc":17569.34,"vendIncDis":"2","webSiteInfoUrl":"","womemPNum":101,"womemPNumDis":"2"}],"draw":1,"error":"","perPage":5,"recordsFiltered":0,"recordsTotal":0,"start":0,"totalPage":0}


# 企业年报信息社保信息
{"cacheKey":"0_5","currentPage":0,"data":[{"anCheId":"A74EB554F3FE3255E0537903000A111E","dataActive":"","dateTime":null,"nodeNum":"440300","sExtCreatetime":1599213633912,"sExtIcode":"440300be55b2df0a3ece224f89d745193f59dd","sExtNodenum":"440000","sExtSequence":"be7e52566d2b09f9b777465d1ae9adef","sExtTimestamp":null,"so110":278,"so210":278,"so310":277,"so410":278,"so510":277,"soseId":"A74EB554F4003255E0537903000A111E","totalPaymentDis":"2","totalPaymentSo110":235.278711,"totalPaymentSo210":6.3855,"totalPaymentSo310":35.589098,"totalPaymentSo410":5.131469,"totalPaymentSo510":5.184887,"totalWagesDis":"2","totalWagesSo110":1117.4723,"totalWagesSo210":742.5,"totalWagesSo310":2876.4237,"totalWagesSo410":1152.5979,"totalWagesSo510":1152.1579,"unpaidSocialInsDis":"2","unpaidSocialInsSo110":0,"unpaidSocialInsSo210":0,"unpaidSocialInsSo310":0,"unpaidSocialInsSo410":0,"unpaidSocialInsSo510":0,"vAnnualReportAlters":[]}],"draw":1,"error":"","perPage":5,"recordsFiltered":0,"recordsTotal":0,"start":0,"totalPage":0}
{"cacheKey":"0_5","currentPage":0,"data":[{"anCheId":"BEB7B79189C7921EE0537B03000A2D62","dataActive":"","dateTime":null,"nodeNum":"440300","sExtCreatetime":1630406171737,"sExtIcode":"440300ef654b918b650fdabc746e48c1df647a","sExtNodenum":"440000","sExtSequence":"08e605df60f8cb2eac2e39ab511981ba","sExtTimestamp":null,"so110":0,"so210":0,"so310":0,"so410":0,"so510":0,"soseId":"BEB7B79189C9921EE0537B03000A2D62","totalPaymentDis":"2","totalPaymentSo110":0,"totalPaymentSo210":0,"totalPaymentSo310":0,"totalPaymentSo410":0,"totalPaymentSo510":0,"totalWagesDis":"2","totalWagesSo110":0,"totalWagesSo210":0,"totalWagesSo310":0,"totalWagesSo410":0,"totalWagesSo510":0,"unpaidSocialInsDis":"2","unpaidSocialInsSo110":0,"unpaidSocialInsSo210":0,"unpaidSocialInsSo310":0,"unpaidSocialInsSo410":0,"unpaidSocialInsSo510":0,"vAnnualReportAlters":[]}],"draw":1,"error":"","perPage":5,"recordsFiltered":0,"recordsTotal":0,"start":0,"totalPage":0}

# $企业年报信息
{"cacheKey":"0_10","currentPage":0,"data":[{"addr":"深圳市龙岗区坪地街道坪西社区龙岗北路39号","alterStockInfoUrl":"","alterTotalPageUrl":"","alterUrl":"","anCheDate":1591344834000,"anCheId":"A74EB554F3FE3255E0537903000A111E","anCheYear":"2019","anType":"10","annBaseJsUrl":"","annBaseUrl":"","annPbBaseJsUrl":"","annPbBaseUrl":"","annRepFrom":"","annSfcBaseJsUrl":"","annSfcBaseUrl":"","annSfccSocsecinfoUrl":"","annSocsecinfoUrl":"","annulLicenceUrl":"","assGro":10545,"assGroDis":"2","baseInfoUrl":"","branchProductionUrl":"","busSt":"1","busSt_CN":"开业","colEmplNum":0,"colGraNum":0,"dependentEntName":"","dependentName":"","dependentUniscId":"","dis":null,"disEmplNum":0,"disPerNum":0,"email":"442191666@qq.com","empNum":278,"empNumDis":"2","entName":"力野精密工业(深圳)有限公司","entType":"5150","forGuaranteeinfoUrl":"","forInvestmentUrl":"","holdingSmsg":"","holdingSmsgDis":"2","holdingSmsg_cn":"外商控股","isDis":null,"lastModifiedPerson":"","lastModifiedTime":null,"liaGro":5502,"liaGroDis":"2","maiBusInc":16359,"maiBusIncDis":"2","mainBusiAct":"研究开发高档建筑五金、水暖器材、金属五金零件、休闲运动用品、渔具、民用飞机与汽车、摩托车、自行车用铸锻毛胚及关键零部件；生产经营五金机械制品。","netInc":506,"netIncDis":"2","numParM":null,"parIns":"","parIns_CN":"","postalCode":"518117","pripId":"A264297","proGro":595,"proGroDis":"2","ratGro":176,"ratGroDis":"2","regNo":"440307503223952","resParMSign":"","resParSecSign":"","retEmplNum":0,"retSolNum":0,"sExtSequence":"3e232bad57878f1eaf487a6222adf1d2","sponsorUrl":"","tel":"13699798416","totEqu":5044,"totEquDis":"2","uneEmplNum":0,"uneNum":0,"uniscId":"914403007755538580","vAnnPbAssetUrl":"","vAnnualReportAlters":null,"vAnnualReportSfcBranchUrl":"","vannualSfcAssertUrl":"","vendInc":16467,"vendIncDis":"2","webSiteInfoUrl":"","womemPNum":91,"womemPNumDis":"2"}],"draw":1,"error":"","perPage":10,"recordsFiltered":0,"recordsTotal":0,"start":0,"totalPage":0}
{"cacheKey":"0_10","currentPage":0,"data":[{"addr":"深圳市龙岗区坪地街道坪西社区龙岗北路39号","alterStockInfoUrl":"","alterTotalPageUrl":"","alterUrl":"","anCheDate":1630393894000,"anCheId":"BEB7B79189C7921EE0537B03000A2D62","anCheYear":"2020","anType":"10","annBaseJsUrl":"","annBaseUrl":"","annPbBaseJsUrl":"","annPbBaseUrl":"","annRepFrom":"","annSfcBaseJsUrl":"","annSfcBaseUrl":"","annSfccSocsecinfoUrl":"","annSocsecinfoUrl":"","annulLicenceUrl":"","assGro":13240.93,"assGroDis":"2","baseInfoUrl":"","branchProductionUrl":"","busSt":"1","busSt_CN":"开业","colEmplNum":0,"colGraNum":0,"dependentEntName":"","dependentName":"","dependentUniscId":"","dis":null,"disEmplNum":0,"disPerNum":0,"email":"442191666@qq.com","empNum":256,"empNumDis":"2","entName":"力野精密工业(深圳)有限公司","entType":"5150","forGuaranteeinfoUrl":"","forInvestmentUrl":"","holdingSmsg":"","holdingSmsgDis":"2","holdingSmsg_cn":"外商控股","isDis":null,"lastModifiedPerson":"","lastModifiedTime":null,"liaGro":7080.76,"liaGroDis":"2","maiBusInc":17569.34,"maiBusIncDis":"2","mainBusiAct":"研究开发高档建筑五金、水暖器材、金属五金零件、休闲运动用品、渔具、民用飞机与汽车、摩托车、自行车用铸锻毛胚及关键零部件；生产经营五金机械制品。","netInc":935.29,"netIncDis":"2","numParM":null,"parIns":"","parIns_CN":"","postalCode":"518000","pripId":"A264297","proGro":1091.19,"proGroDis":"2","ratGro":120.25,"ratGroDis":"2","regNo":"440307503223952","resParMSign":"","resParSecSign":"","retEmplNum":0,"retSolNum":0,"sExtSequence":"fecd10a3f9862ffc480a28f907f13f3e","sponsorUrl":"","tel":"13699798416","totEqu":6160.17,"totEquDis":"2","uneEmplNum":0,"uneNum":0,"uniscId":"914403007755538580","vAnnPbAssetUrl":"","vAnnualReportAlters":null,"vAnnualReportSfcBranchUrl":"","vannualSfcAssertUrl":"","vendInc":17569.34,"vendIncDis":"2","webSiteInfoUrl":"","womemPNum":101,"womemPNumDis":"2"}],"draw":1,"error":"","perPage":10,"recordsFiltered":0,"recordsTotal":0,"start":0,"totalPage":0}

# 行政许可信息
{"cacheKey":"0_5","currentPage":0,"data":[{"acCerno":"","acCertype":"","actype":"","cerno":"","certype":"","datadept":"","datadeptuniscid":"","detailUrl":"/%7B7A3EAF66121F0EB4E128686530C38CF831EA0F5A57EF91EF7D8E4BDAD724EA317524713E865D232EDC95633AA81B1E6FDC2A7B0AB9047EF47E5F7E5F7EE2B1AA8B4EE5D5493F0F7949C39028092312B988238806C3061B91BBE862ECA83DE2ADB3CD592DE43F4BD945A5756E3DB7AC86F0-1652410362117%7D","entname":"力野精密工业(深圳)有限公司","inscercode":"","invaliddate":null,"invalidrea":"","lerep":"","licanth":"深圳市市场监督管理局","licanthno":"","licanthuniscid":"","licdeccode":"","licdecdate":null,"licdecname":"","licid":"PROVINCENODENUM440000d620fb3d737346a095b5bb8ff149648c","licitem":"主体类型:有限责任公司(外国法人独资);住所:深圳市龙岗区坪地街道坪西社区龙岗北路39号;法定代表人:石明津;成立日期:2005-11-15","licname":"","licnameCn":"外商投资企业设立登记","licno":"","licstate":"","lictype":"","lictypeCn":"","name":"","nodeNum":"440000","orgcode":"","pripid":"A264297","regno":"440307503223952","remark":"","socorgcode":"","taxid":"","type":"1","uniscid":"914403007755538580","valiperifrom":1131984000000,"valiperito":1763136000000},{"acCerno":"","acCertype":"","actype":"","cerno":"","certype":"","datadept":"","datadeptuniscid":"","detailUrl":"/%7BB5F160A9DDD0C17B2EE7A7AAFF0C4337FE25C09598205E20B241841518EB25FEBAEBBEF14992ECE1135AACF567D4D1A013E5B4C576CBB13BB190B190B13F870928A62C68590A591D9319048EBE9F82D182D7CABCCAFBDA54013110D55BCE115E403EAADE17CCB82AB656869DCE445F7503-1652410362117%7D","entname":"力野精密工业(深圳)有限公司","inscercode":"","invaliddate":null,"invalidrea":"","lerep":"","licanth":"深圳市市场监督管理局","licanthno":"","licanthuniscid":"","licdeccode":"","licdecdate":null,"licdecname":"","licid":"PROVINCENODENUM4400008a8084c566c841430166e177508e30f8","licitem":"主体业态:单位食堂（机关企事业单位食堂：最大就餐人数（180））;经营项目:热食类食品制售;经营场所:深圳市龙岗区坪地街道坪西社区龙岗北路39号F栋一楼","licname":"","licnameCn":"食品经营许可","licno":"JY34403070797495","licstate":"","lictype":"","lictypeCn":"","name":"","nodeNum":"440000","orgcode":"","pripid":"A264297","regno":"440307503223952","remark":"","socorgcode":"","taxid":"","type":"1","uniscid":"914403007755538580","valiperifrom":1541001600000,"valiperito":1698681600000}],"draw":1,"error":"","perPage":5,"recordsFiltered":2,"recordsTotal":2,"start":0,"totalPage":1}